%YAML 1.1
%TAG !u! tag:unity3d.com,2011:
--- !u!114 &11400000
MonoBehaviour:
  m_ObjectHideFlags: 0
  m_CorrespondingSourceObject: {fileID: 0}
  m_PrefabInstance: {fileID: 0}
  m_PrefabAsset: {fileID: 0}
  m_GameObject: {fileID: 0}
  m_Enabled: 1
  m_EditorHideFlags: 0
  m_Script: {fileID: 11500000, guid: 2080bcd710e877e41b18e90eb42f94fa, type: 3}
  m_Name: Calcium
  m_EditorClassIdentifier: 
  atomic: 20
  symbol: Ca
  weight: 40.078
  period: {x: 4, y: 2}
  atomEnergyLevels: 02000000080000000800000002000000
