%YAML 1.1
%TAG !u! tag:unity3d.com,2011:
--- !u!114 &11400000
MonoBehaviour:
  m_ObjectHideFlags: 0
  m_CorrespondingSourceObject: {fileID: 0}
  m_PrefabInstance: {fileID: 0}
  m_PrefabAsset: {fileID: 0}
  m_GameObject: {fileID: 0}
  m_Enabled: 1
  m_EditorHideFlags: 0
  m_Script: {fileID: 11500000, guid: 2080bcd710e877e41b18e90eb42f94fa, type: 3}
  m_Name: Oxygen
  m_EditorClassIdentifier: 
  atomPrefab: {fileID: 6130928148214127052, guid: 011de754520443e41858f71201297f16,
    type: 3}
  atomic: 8
  mass: 16
  symbol: O
  weight: 14.007
  period: {x: 2, y: 16}
  atomEnergyLevels: 0200000006000000
