%YAML 1.1
%TAG !u! tag:unity3d.com,2011:
--- !u!114 &11400000
MonoBehaviour:
  m_ObjectHideFlags: 0
  m_CorrespondingSourceObject: {fileID: 0}
  m_PrefabInstance: {fileID: 0}
  m_PrefabAsset: {fileID: 0}
  m_GameObject: {fileID: 0}
  m_Enabled: 1
  m_EditorHideFlags: 0
  m_Script: {fileID: 11500000, guid: 2080bcd710e877e41b18e90eb42f94fa, type: 3}
  m_Name: Tin
  m_EditorClassIdentifier: 
  atomic: 50
  symbol: Sn
  weight: 118.71
  period: {x: 5, y: 14}
  atomEnergyLevels: 0200000008000000120000001200000004000000
